Proportion of Sediment-sensitive Invertebrates (PSI) — calc_psi • macroinvertebrateMetrics
…
itemresponse

    References

    Extence, Chris & Chadd, Richard & England, Judy & Dunbar, M.J. & Wood, Paul &
Taylor, E.D.. (2010). The Assessment of Fine Sediment Accumulation in Rivers
Using Macro-Invertebrate Community Response. River Research and Applications.
29. 10.1002/rra.1569.

    Examples

sample <- demo_data
calc_psi(data = sample, taxa_list = "TL3")
#> # A tibble: 144 × 5
#>    sample_id parameter_long                          parameter question response
#>    <chr>     <chr>                                   <chr>     <chr>    <chr>   
#>  1 1017980   Proportion of Sediment-sensitive Inver… METRIC P… PSI Sco… 71.4285…
#>  2 1017980   Proportion of Sediment-sensitive Inver… METRIC P… PSI Con… Slightl…
#>  3 1101214   Proportion of Sediment-sensitive Inver… METRIC P… PSI Sco… 70      
#>  4 1101214   Proportion of Sediment-sensitive Inver… METRIC P… PSI Con… Slightl…
#>  5 1250462   Proportion of Sediment-sensitive Inver… METRIC P… PSI Sco… 66.6666…
#>  6 1250462   Proportion of Sediment-sensitive Inver… METRIC P… PSI Con… Slightl…
#>  7 1419451   Proportion of Sediment-sensitive Inver… METRIC P… PSI Sco… 62.5    
#>  8 1419451   Proportion of Sediment-sensitive Inver… METRIC P… PSI Con… Slightl…
#>  9 1457665   Proportion of Sediment-sensitive Inver… METRIC P… PSI Sco… 75      
#> 10 1457665   Proportion of Sediment-sensitive Inver… METRIC P… PSI Con… Slightl…
#> # ℹ 134 more rows
…
